vhdl isim_temp "RegistroEstados.vhd"
vhdl isim_temp "Pack.vhd"
vhdl isim_temp "muxSM.vhd"
vhdl isim_temp "muxSD.vhd"
vhdl isim_temp "MO.vhd"
vhdl isim_temp "MF.vhd"
vhdl isim_temp "FSM_CTRL.vhd"
vhdl isim_temp "DetectorNivel.vhd"
vhdl isim_temp "DECO_INST.vhd"
vhdl isim_temp "CONDICION.vhd"
vhdl isim_temp "PILAHW.vhd"
vhdl isim_temp "pack_escomips.vhd"
vhdl isim_temp "MP.vhd"
vhdl isim_temp "MD.vhd"
vhdl isim_temp "main.vhd"
vhdl isim_temp "FILE_REGISTER.vhd"
vhdl isim_temp "EXTSIG.vhd"
vhdl isim_temp "EXTDIR.vhd"
vhdl isim_temp "ALU.vhd"
vhdl isim_temp "escomips.vhd"
vhdl isim_temp "ESCOMIPS_TB.vhd"
